…
``` r
#create a heatmap
Stock_new%>%group_by()
```

    ## # A tibble: 173 x 9
    ##    Date       Amazon Google Facebook Apple Tesla Infosys Month Day  
    ##  * <fct>       <dbl>  <dbl>    <dbl> <dbl> <dbl>   <dbl> <chr> <chr>
    ##  1 03-01-2017   754.   808.     117.  116.  217.    14.7 01    03   
    ##  2 04-01-2017   757.   808.     119.  116.  227.    15.1 01    04   
    ##  3 05-01-2017   780.   813.     121.  117.  227.    15.0 01    05   
    ##  4 06-01-2017   796.   825.     123.  118.  229.    14.8 01    06   
    ##  5 09-01-2017   797.   827.     125.  119.  231.    15.0 01    09   
    ##  6 10-01-2017   796.   826.     124.  119.  230.    14.8 01    10   
    ##  7 11-01-2017   799.   830.     126.  120.  230.    15.2 01    11   
    ##  8 12-01-2017   814.   830.     127.  119.  230.    15.2 01    12   
    ##  9 13-01-2017   817.   831.     128.  119.  238.    14.5 01    13   
    ## 10 17-01-2017   810.   827.     128.  120.  236.    14.5 01    17   
    ## # ... with 163 more rows
…
